{
  "primaryPassword": "no_password",
  "jwt": {
    "secret": "you_wont_know",
    "expiresInSeconds": 64800
  },
  "database": {
    "host": "localhost",
    "port": 27017,
    "name": "digital_pa_db",
    "user": "root",
    "password": "no_password"
  }
}